%YAML 1.1
%TAG !u! tag:unity3d.com,2011:
--- !u!1 &510881242091192734
GameObject:
  m_ObjectHideFlags: 0
  m_CorrespondingSourceObject: {fileID: 0}
  m_PrefabInstance: {fileID: 0}
  m_PrefabAsset: {fileID: 0}
  serializedVersion: 6
  m_Component:
  - component: {fileID: 1878238698470083727}
  m_Layer: 0
  m_Name: EntranceDoors
  m_TagString: Untagged
  m_Icon: {fileID: 0}
  m_NavMeshLayer: 0
  m_StaticEditorFlags: 0
  m_IsActive: 1
--- !u!4 &1878238698470083727
Transform:
  m_ObjectHideFlags: 0
  m_CorrespondingSourceObject: {fileID: 0}
  m_PrefabInstance: {fileID: 0}
  m_PrefabAsset: {fileID: 0}
  m_GameObject: {fileID: 510881242091192734}
  m_LocalRotation: {x: 0, y: 0, z: 0, w: 1}
  m_LocalPosition: {x: 7.1451526, y: -6.9024725, z: -0.9614029}
  m_LocalScale: {x: 1, y: 1, z: 1}
  m_Children:
  - {fileID: 8760529881471317130}
  - {fileID: 8678993802869474575}
  m_Father: {fileID: 0}
  m_RootOrder: 0
  m_LocalEulerAnglesHint: {x: 0, y: 0, z: 0}
--- !u!1001 &8678993802869612431
PrefabInstance:
  m_ObjectHideFlags: 0
  serializedVersion: 2
  m_Modification:
    m_TransformParent: {fileID: 1878238698470083727}
    m_Modifications:
    - target: {fileID: 400000, guid: cf029f2b2dac7884aa8ea4a8c0b7597d, type: 3}
      propertyPath: m_LocalRotation.x
      value: -0
      objectReference: {fileID: 0}
    - target: {fileID: 400000, guid: cf029f2b2dac7884aa8ea4a8c0b7597d, type: 3}
      propertyPath: m_LocalPosition.x
      value: -12.095154
      objectReference: {fileID: 0}
    - target: {fileID: 400000, guid: cf029f2b2dac7884aa8ea4a8c0b7597d, type: 3}
      propertyPath: m_LocalPosition.y
      value: 6.7934713
      objectReference: {fileID: 0}
    - target: {fileID: 400000, guid: cf029f2b2dac7884aa8ea4a8c0b7597d, type: 3}
      propertyPath: m_LocalPosition.z
      value: 3.213684
      objectReference: {fileID: 0}
    - target: {fileID: 400000, guid: cf029f2b2dac7884aa8ea4a8c0b7597d, type: 3}
      propertyPath: m_RootOrder
      value: 1
      objectReference: {fileID: 0}
    m_RemovedComponents: []
  m_SourcePrefab: {fileID: 100100000, guid: cf029f2b2dac7884aa8ea4a8c0b7597d, type: 3}
--- !u!4 &8678993802869474575 stripped
Transform:
  m_CorrespondingSourceObject: {fileID: 400000, guid: cf029f2b2dac7884aa8ea4a8c0b7597d,
    type: 3}
  m_PrefabInstance: {fileID: 8678993802869612431}
  m_PrefabAsset: {fileID: 0}
--- !u!1001 &8760529881471446538
PrefabInstance:
  m_ObjectHideFlags: 0
  serializedVersion: 2
  m_Modification:
    m_TransformParent: {fileID: 1878238698470083727}
    m_Modifications:
    - target: {fileID: 400000, guid: 59733588548a91642b919efcb32c839d, type: 3}
      propertyPath: m_LocalRotation.x
      value: -0
      objectReference: {fileID: 0}
    - target: {fileID: 400000, guid: 59733588548a91642b919efcb32c839d, type: 3}
      propertyPath: m_LocalPosition.x
      value: -12.095154
      objectReference: {fileID: 0}
    - target: {fileID: 400000, guid: 59733588548a91642b919efcb32c839d, type: 3}
      propertyPath: m_LocalPosition.y
      value: 6.7934713
      objectReference: {fileID: 0}
    - target: {fileID: 400000, guid: 59733588548a91642b919efcb32c839d, type: 3}
      propertyPath: m_LocalPosition.z
      value: -4.786316
      objectReference: {fileID: 0}
    - target: {fileID: 400000, guid: 59733588548a91642b919efcb32c839d, type: 3}
      propertyPath: m_RootOrder
      value: 0
      objectReference: {fileID: 0}
    m_RemovedComponents: []
  m_SourcePrefab: {fileID: 100100000, guid: 59733588548a91642b919efcb32c839d, type: 3}
--- !u!4 &8760529881471317130 stripped
Transform:
  m_CorrespondingSourceObject: {fileID: 400000, guid: 59733588548a91642b919efcb32c839d,
    type: 3}
  m_PrefabInstance: {fileID: 8760529881471446538}
  m_PrefabAsset: {fileID: 0}
