%YAML 1.1
%TAG !u! tag:unity3d.com,2011:
--- !u!21 &2100000
Material:
  serializedVersion: 6
  m_ObjectHideFlags: 0
  m_CorrespondingSourceObject: {fileID: 0}
  m_PrefabInstance: {fileID: 0}
  m_PrefabAsset: {fileID: 0}
  m_Name: Parallax_Building_Lit
  m_Shader: {fileID: 4800000, guid: 963bc3c6f4b8c2f4c8db108f28a07575, type: 3}
  m_ShaderKeywords: _FACADETEXTURE_ON _SWITCHPLANE_ON _TOGGLEPROPLAYER_ON
  m_LightmapFlags: 5
  m_EnableInstancingVariants: 0
  m_DoubleSidedGI: 0
  m_CustomRenderQueue: -1
  stringTagMap: {}
  disabledShaderPasses: []
  m_SavedProperties:
    serializedVersion: 3
    m_TexEnvs:
    - _Back:
        m_Texture: {fileID: 2800000, guid: 123306b02e5cc314186cc4b7b00cc05b, type: 3}
        m_Scale: {x: 1, y: 1}
        m_Offset: {x: 0, y: 0}
    - _Ceileing:
        m_Texture: {fileID: 2800000, guid: 63bb90049cec6ac479388e696ef377d4, type: 3}
        m_Scale: {x: 1, y: 1}
        m_Offset: {x: 0, y: 0}
    - _Ceiling:
        m_Texture: {fileID: 2800000, guid: 1d90ad99875b3cf4a8fadae6c7225db7, type: 3}
        m_Scale: {x: 1, y: 1}
        m_Offset: {x: 0, y: 0}
    - _FacadeAlbedo:
        m_Texture: {fileID: 2800000, guid: 2b8f0780fef09d44a8603f5d452c2d63, type: 3}
        m_Scale: {x: 1, y: 1}
        m_Offset: {x: 0, y: 0}
    - _FacadeSmoothness:
        m_Texture: {fileID: 2800000, guid: 287e0edacb2bafd4cb5f0932536026ed, type: 3}
        m_Scale: {x: 1, y: 1}
        m_Offset: {x: 0, y: 0}
    - _Floor:
        m_Texture: {fileID: 2800000, guid: 6d4c2362b588b0747af877613b166400, type: 3}
        m_Scale: {x: 1, y: 1}
        m_Offset: {x: 0, y: 0}
    - _Props:
        m_Texture: {fileID: 2800000, guid: e17c19fee7d6ad042a243d1751e2dc27, type: 3}
        m_Scale: {x: 1, y: 1}
        m_Offset: {x: 0, y: 0}
    - _TextureSample1:
        m_Texture: {fileID: 2800000, guid: e5e660bd44fcb5d498761b934c5f5f4e, type: 3}
        m_Scale: {x: 1, y: 1}
        m_Offset: {x: 0, y: 0}
    - _TextureSample2:
        m_Texture: {fileID: 2800000, guid: e5e660bd44fcb5d498761b934c5f5f4e, type: 3}
        m_Scale: {x: 1, y: 1}
        m_Offset: {x: 0, y: 0}
    - _Wall:
        m_Texture: {fileID: 2800000, guid: e156cc7c25a806a4bb1f94743200be0d, type: 3}
        m_Scale: {x: 1, y: 1}
        m_Offset: {x: 0, y: 0}
    - _texcoord:
        m_Texture: {fileID: 0}
        m_Scale: {x: 1, y: 1}
        m_Offset: {x: 0, y: 0}
    m_Floats:
    - _BackWallTexTiling: 0.295
    - _BackWallTexTilling: 0.41
    - _BackWallTile: 2
    - _CeilingTexTiling: 1
    - _CeilingTexTilling: 1
    - _CeilingTile: 2
    - _DisableFacade: 0
    - _DisableFacadeTexture: 0
    - _FacadeSmoothnessValue: 0.558
    - _FacadeTexture: 1
    - _FacadeTiling: 1
    - _Float0: -1.57
    - _Float1: -1.57
    - _Float2: 3.28
    - _FloorTexTiling: 0.3
    - _FloorTexTilling: 1
    - _FloorTile: 2
    - _GlassSmoothness: 12.36
    - _GlassSmoothnessMultiplier: 9.79
    - _Keyword1: 1
    - _PropLayerToggle: 1
    - _PropsTexTiling: 0.295
    - _PropsTexTilling: 0.41
    - _RoomIntensity: 10.2
    - _RoomTile: 1
    - _Smoothness: 0
    - _SmoothnessValue: 1
    - _SwitchPlane: 1
    - _TogglePropLayer: 1
    - _ToggleSwitch0: 0
    - _UseFacadeTexture: 0
    - _WallTile: 2
    - _WalltexTiling: 0.295
    - _WalltexTilling: 0.41
    - __dirty: 0
    m_Colors:
    - _PositionOffsetXYZroomsWprops: {r: 2.65, g: 0.36, b: 1, a: 1}
    - _RoomColorTint: {r: 1, g: 0.9602434, b: 0.91764706, a: 0}
    - _RoomsXYZPropsW: {r: 0.195, g: 0.59, b: 0.45, a: 0.295}
    - _Vector0: {r: 0.93, g: 1, b: 0, a: 0}
